{
  "type": "minecraft:crafting_shapeless",
  "group": "wooden_button",
  "ingredients": [
    {
      "item": "minecraft:birch_sapling"
    }
  ],
  "result": {
    "item": "minecraft:dark_oak_sapling"
  }
}