{ 
"type": "minecraft:crafting_shaped",
"pattern": [
"nin",
"e  ",
"   "
],
"key": {
"e": { "item": "thekabbalahblock:letter_e" },
"i": { "item": "thekabbalahblock:letter_i" },
"n": { "item": "thekabbalahblock:letter_n" }
},
"result": {
"item": "thekabbalahblock:letter_9"
}
}
