{ 
"type": "extendedcrafting:shaped_table",
"pattern": [
"xixixixix",
"ixixixixi",
"xixixixix",
"ixixixixi",
"xixixixix",
"ixixixixi",
"xixixixix",
"ixixixixi",
"xixixixix"
],
"key": {
"i": { "item": "minecraft:stone" },
"x": { "item": "minecraft:iron_ingot" }
},
"result": {
"count":128,
"item": "minecraft:iron_ore"
}
}
