{ 
"type": "minecraft:crafting_shaped",
"pattern": [
"dus",
"tli",
"ght"
],
"key": {
"d": { "item": "thekabbalahblock:letter_d" },
"g": { "item": "thekabbalahblock:letter_g" },
"h": { "item": "thekabbalahblock:letter_h" },
"i": { "item": "thekabbalahblock:letter_i" },
"l": { "item": "thekabbalahblock:letter_l" },
"s": { "item": "thekabbalahblock:letter_s" },
"t": { "item": "thekabbalahblock:letter_t" },
"u": { "item": "thekabbalahblock:letter_u" }
},
"result": {
"item": "minecraft:glowstone_dust"
}
}
