{
  "type": "minecraft:crafting_shaped",
  "pattern": [
    "7",
    "1"
  ],
  "key": {
    "7": {
      "item": "thekabbalahblock:letter_7"
    },
    "1": {
      "item": "thekabbalahblock:letter_1"
    }
  },
  "result": {
    "item": "thekabbalahblock:letter_g"
  }
}
