{
  "type": "minecraft:crafting_shaped",
  "pattern": [
    "7",
    "3"
  ],
  "key": {
    "7": {
      "item": "thekabbalahblock:letter_7"
    },
    "3": {
      "item": "thekabbalahblock:letter_3"
    }
  },
  "result": {
    "item": "thekabbalahblock:letter_i"
  }
}
