{ 
"type": "minecraft:crafting_shaped",
"pattern": [
"8","4"
],
"key": {
  "8": { "item": "thekabbalahblock:letter_8" },
  "4": { "item": "thekabbalahblock:letter_4" }
},
"result": {
"item": "thekabbalahblock:letter_t"
}
}
