{ 
"type": "minecraft:crafting_shaped",
"pattern": [
"8","9"
],
"key": {
  "8": { "item": "thekabbalahblock:letter_8" },
  "9": { "item": "thekabbalahblock:letter_9" }
},
"result": {
"item": "thekabbalahblock:letter_y"
}
}
