{
  "type": "minecraft:crafting_shaped",
  "pattern": [
    "ddd",
    "sss",
    "ddd"
  ],
  "key": {
    "s": {
      "item": "minecraft:sandstone"
    },
    "d": {
      "item": "minecraft:bone_meal"
    }
  },
  "result": {
    "count": 32,
    "item": "create:limestone"
  }
}
